{
    "src": "/img/sprites/heart.png",
    "animations": [
        {
            "label": "idle",
            "frames": [
                {
                    "x": 0,
                    "y": 0,
                    "width": 32,
                    "height": 32
                }
            ]
        }
    ]
}
